1267:
3.0
2.9
3.5
3.5
4.0
3.9
1.4
3.1
3.4
2.9
2.3
2.3
2.9
3.5
3.3
2.9
2.9
3.5
3.3
3.1
3.5
3.2
3.0
2.1
3.3
4.3
3.7
3.6
3.1
2.3
2.5
3.7
3.9
2.9
3.4
3.1
3.5
3.8
2.9
3.3
3.7
4.3
2.8
3.1
3.3
3.4
3.3
3.6
3.0
3.4
3.8
2.7
3.2
3.0
2.7
3.1
3.5
3.3
1.9
3.8
2.5
3.0
2.8
3.1
3.1
3.9
2.8
2.9
2.3
3.1
3.1
3.7
3.7
3.5
3.3
2.0
3.1
2.7
3.9
3.0
3.4
3.1
2.5
3.3
3.8
3.4
3.4
2.9
3.8
2.8
3.1
2.8
2.8
3.4
3.4
3.9
3.1
2.8
3.7
1.8
3.0
4.3
3.4
3.8
3.1
3.6
3.5
4.0
3.1
4.2
2.8
3.1
2.8
4.0
3.5
3.0
3.4
2.3
3.2
3.6
4.4
3.4
3.7
3.2
3.4
3.7
3.3
3.4
3.6
3.6
3.8
3.7
3.4
3.5
3.1
3.3
3.6
3.8
3.8
3.7
3.2
3.0
3.7
3.5
3.4
2.8
3.1
2.0
3.1
2.8
3.2
3.6
3.4
3.7
3.6
4.5
2.5
3.4
3.4
3.5
2.2
3.5
3.9
3.9
3.2
3.4
3.6
3.0
3.3
3.6
2.4
3.2
3.5
3.4
3.3
3.1
2.2
3.2
1.7
3.4
3.9
3.0
1.9
3.2
3.1
2.6
3.4
3.1
3.5
3.7
3.9
3.8
2.2
3.3
2.8
3.8
3.0
3.5
3.6
RMSE: 0.97
